2 Data Analysis – LCA-Work Visa Trends
…
# Create summary by year and status
summary_data <- all_data %>%
  filter(STATUS_CATEGORY %in% c("Accepted", "Rejected")) %>%
  group_by(YEAR, STATUS_CATEGORY) %>%
  summarise(COUNT = n(), .groups = "drop")
# Print summary
print(all_data)

# A tibble: 3,899,983 × 3
   CASE_STATUS  YEAR STATUS_CATEGORY
   <chr>       <dbl> <chr>          
 1 WITHDRAWN    2019 Rejected       
 2 WITHDRAWN    2019 Rejected       
 3 WITHDRAWN    2019 Rejected       
 4 WITHDRAWN    2019 Rejected       
 5 WITHDRAWN    2019 Rejected       
 6 WITHDRAWN    2019 Rejected       
 7 WITHDRAWN    2019 Rejected       
 8 WITHDRAWN    2019 Rejected       
 9 WITHDRAWN    2019 Rejected       
10 WITHDRAWN    2019 Rejected       
# ℹ 3,899,973 more rows
…
