4 Freq Plot – LCA-Work Visa Trends
…
Code

# Unique SOC code–title combinations
soc_table <- lca |>
  select(SOC_CODE, SOC_TITLE) |>
  distinct() |>
  arrange(SOC_CODE)

# View in console
soc_table

# A tibble: 794 × 2
   SOC_CODE   SOC_TITLE                          
   <chr>      <chr>                              
 1 11-1011    Chief Executives                   
 2 11-1011.00 Chief Executives                   
 3 11-1011.03 Chief Sustainability Officers      
 4 11-1021    General and Operations Managers    
 5 11-1021.00 General and Operations Managers    
 6 11-2011.00 Advertising and Promotions Managers
 7 11-2021    Marketing Managers                 
 8 11-2021    MARKETING MANAGERS                 
 9 11-2021    Marketing Manager                  
10 11-2021.00 Marketing Managers                 
# ℹ 784 more rows
…
